1590770056069
O2, I0
O2, I0
O2, I0
O2, I0
O2, I0
O2, I0
O2, I0
O2, I0
O2, I0
O2, I0
O2, I0
O2, I0
O2, I0
O2, I0
O2, I0
O2, I0
O2, I0
O2, I0
O2, I0
O2, I0
O2, I0
O2, I0
O2, I0
O2, I0
O2, I0
O2, I0
O2, I0
O2, I0
O2, I0
O2, I0
1590770357344
O2, I0
O2, I0
O2, I0
1590770380359
O2, I0
O2, I0
O2, I0
O2, I0
O2, I0
O2, I0
O2, I0
O2, I0
O2, I0
O2, I0
O2, I0
O2, I0
O2, I0
O2, I0
O2, I0
O2, I0
O2, I0
O2, I0
O2, I0
O2, I0
O2, I0
O2, I0
O2, I0
O2, I0
O2, I0
O2, I0
O2, I0
1590770649314
O2, I0
O2, I0
O2, I0
O2, I0
1590770683120
O2, I0
O2, I0
O2, I0
O2, I0
O2, I0
1590770897094
O2, I0
O2, I0
O2, I0
O2, I0
O2, I0
O2, I0
O2, I0
O2, I0
O2, I0
O2, I0
O2, I0
O2, I0
O2, I0
O2, I0
O2, I0
O2, I0
1590771057899
O2, I0
O2, I0
O2, I0
O2, I0
O2, I0
O2, I0
O2, I0
O2, I0
O2, I0
O2, I0
O2, I0
O2, I0
O2, I0
O2, I0
O2, I0
O2, I0
O2, I0
O2, I0
O2, I0
O2, I0
O2, I0
O2, I0
O2, I0
O2, I0
O2, I0
O2, I0
O2, I0
O2, I0
O2, I0
O2, I0
O2, I0
O2, I0
O2, I0
O2, I0
O2, I0
O2, I0
1590771420614
O2, I0
O2, I0
O2, I0
O2, I0
O2, I0
O2, I0
O2, I0
O2, I0
1590771601811
O2, I0
O2, I0
O2, I0
O2, I0
O2, I0
O2, I0
O2, I0
1590771668653
O2, I0
O2, I0
1590771690475
O2, I0
1590771702614
O2, I0
O2, I0
O2, I0
1590771730354
O2, I0
O2, I0
O2, I0
O2, I0
O2, I0
O2, I0
O2, I0
O2, I0
O2, I0
O2, I0
O2, I0
O2, I0
O2, I0
O2, I0
O2, I0
O2, I0
O2, I0
O2, I0
O2, I0
O2, I0
1590772118233
O2, I0
O2, I0
O2, I0
O2, I0
O2, I0
O2, I0
O2, I0
O2, I0
O2, I0
O2, I0
O2, I0
O2, I0
1590772238452
O2, I0
O2, I0
O2, I0
O2, I0
O2, I0
O2, I0
O2, I0
O2, I0
O2, I0
O2, I0
O2, I0
O2, I0
O2, I0
O2, I0
O2, I0
O2, I0
O2, I0
O2, I0
O2, I0
O2, I0
O2, I0
O2, I0
O2, I0
O2, I0
O2, I0
O2, I0
O2, I0
O2, I0
O2, I0
O2, I0
O2, I0
O2, I0
O2, I0
O2, I0
O2, I0
O2, I0
O2, I0
O2, I0
O2, I0
O2, I0
O2, I0
O2, I0
O2, I0
O2, I0
O2, I0
O2, I0
O2, I0
O2, I0
O2, I0
O2, I0
O2, I0
O2, I0
O2, I0
O2, I0
O2, I0
O2, I0
O2, I0
O2, I0
O2, I0
O2, I0
O2, I0
1590772847152
O2, I0
O2, I0
O2, I0
O2, I0
1590772886109
O2, I0
O2, I0
O2, I0
O2, I0
O2, I0
O2, I0
O2, I0
O2, I0
O2, I0
O2, I0
O2, I0
O2, I0
O2, I0
O2, I0
O2, I0
O2, I0
O2, I0
O2, I0
O2, I0
O2, I0
O2, I0
O2, I0
O2, I0
O2, I0
O2, I0
O2, I0
O2, I0
O2, I0
O2, I0
O2, I0
O2, I0
O2, I0
O2, I0
O2, I0
O2, I0
O2, I0
O2, I0
O2, I0
O2, I0
O2, I0
O2, I0
O2, I0
O2, I0
O2, I0
O2, I0
O2, I0
O2, I0
O2, I0
O2, I0
O2, I0
O2, I0
O2, I0
O2, I0
O2, I0
O2, I0
O2, I0
O2, I0
O2, I0
O2, I0
O2, I0
O2, I0
O2, I0
O2, I0
O2, I0
O2, I0
O2, I0
O2, I0
O2, I0
O2, I0
O2, I0
O2, I0
O2, I0
O2, I0
O2, I0
O2, I0
O2, I0
O2, I0
O2, I0
O2, I0
O2, I0
O2, I0
O2, I0
O2, I0
O2, I0
O2, I0
O2, I0
O2, I0
O2, I0
O2, I0
O2, I0
O2, I0
O2, I0
O2, I0
O2, I0
O2, I0
O2, I0
O2, I0
O2, I0
O2, I0
O2, I0
O2, I0
O2, I0
O2, I0
O2, I0
O2, I0
O2, I0
O2, I0
O2, I0
O2, I0
O2, I0
O2, I0
O2, I0
O2, I0
O2, I0
O2, I0
O2, I0
O2, I0
O2, I0
O2, I0
O2, I0
O2, I0
O2, I0
O2, I0
O2, I0
O2, I0
O2, I0
O2, I0
O2, I0
O2, I0
O2, I0
O2, I0
O2, I0
O2, I0
O2, I0
O2, I0
O2, I0
O2, I0
O2, I0
O2, I0
O2, I0
O2, I0
O2, I0
O2, I0
O2, I0
O2, I0
O2, I0
O2, I0
O2, I0
O2, I0
O2, I0
O2, I0
O2, I0
O2, I0
O2, I0
O2, I0
O2, I0
O2, I0
O2, I0
O2, I0
O2, I0
O2, I0
O2, I0
O2, I0
O2, I0
O2, I0
O2, I0
O2, I0
O2, I0
O2, I0
O2, I0
O2, I0
O2, I0
O2, I0
O2, I0
O2, I0
O2, I0
O2, I0
O2, I0
O2, I0
O2, I0
O2, I0
O2, I0
O2, I0
O2, I0
O2, I0
O2, I0
O2, I0
O2, I0
O2, I0
O2, I0
O2, I0
O2, I0
O2, I0
O2, I0
O2, I0
O2, I0
O2, I0
O2, I0
O2, I0
O2, I0
O2, I0
O2, I0
O2, I0
O2, I0
O2, I0
O2, I0
O2, I0
O2, I0
O2, I0
O2, I0
O2, I0
O2, I0
O2, I0
O2, I0
O2, I0
O2, I0
O2, I0
O2, I0
O2, I0
O2, I0
O2, I0
O2, I0
O2, I0
O2, I0
O2, I0
O2, I0
O2, I0
O2, I0
O2, I0
O2, I0
O2, I0
O2, I0
O2, I0
O2, I0
O2, I0
O2, I0
O2, I0
O2, I0
O2, I0
O2, I0
O2, I0
O2, I0
O2, I0
O2, I0
O2, I0
O2, I0
O2, I0
O2, I0
O2, I0
O2, I0
O2, I0
O2, I0
O2, I0
O2, I0
O2, I0
O2, I0
O2, I0
O2, I0
O2, I0
O2, I0
O2, I0
O2, I0
O2, I0
O2, I0
O2, I0
O2, I0
O2, I0
O2, I0
O2, I0
O2, I0
O2, I0
O2, I0
O2, I0
O2, I0
O2, I0
O2, I0
O2, I0
O2, I0
O2, I0
O2, I0
O2, I0
O2, I0
O2, I0
O2, I0
O2, I0
O2, I0
O2, I0
O2, I0
O2, I0
O2, I0
O2, I0
O2, I0
O2, I0
O2, I0
O2, I0
O2, I0
O2, I0
O2, I0
O2, I0
O2, I0
O2, I0
O2, I0
O2, I0
O2, I0
O2, I0
O2, I0
O2, I0
O2, I0
O2, I0
O2, I0
O2, I0
O2, I0
O2, I0
O2, I0
O2, I0
O2, I0
O2, I0
O2, I0
O2, I0
O2, I0
O2, I0
O2, I0
O2, I0
O2, I0
O2, I0
O2, I0
O2, I0
O2, I0
O2, I0
O2, I0
O2, I0
O2, I0
O2, I0
O2, I0
O2, I0
O2, I0
O2, I0
O2, I0
O2, I0
O2, I0
O2, I0
O2, I0
O2, I0
O2, I0
O2, I0
O2, I0
O2, I0
O2, I0
O2, I0
O2, I0
O2, I0
O2, I0
O2, I0
O2, I0
O2, I0
O2, I0
O2, I0
O2, I0
O2, I0
O2, I0
O2, I0
O2, I0
O2, I0
O2, I0
O2, I0
O2, I0
O2, I0
O2, I0
O2, I0
O2, I0
O2, I0
O2, I0
O2, I0
O2, I0
O2, I0
O2, I0
O2, I0
O2, I0
O2, I0
O2, I0
O2, I0
O2, I0
O2, I0
O2, I0
O2, I0
O2, I0
O2, I0
O2, I0
O2, I0
O2, I0
O2, I0
O2, I0
O2, I0
O2, I0
O2, I0
O2, I0
O2, I0
O2, I0
O2, I0
O2, I0
O2, I0
O2, I0
O2, I0
O2, I0
O2, I0
O2, I0
O2, I0
O2, I0
O2, I0
O2, I0
O2, I0
O2, I0
O2, I0
O2, I0
O2, I0
O2, I0
O2, I0
O2, I0
O2, I0
O2, I0
O2, I0
O2, I0
O2, I0
O2, I0
O2, I0
O2, I0
O2, I0
O2, I0
O2, I0
O2, I0
O2, I0
O2, I0
O2, I0
O2, I0
O2, I0
O2, I0
O2, I0
O2, I0
O2, I0
O2, I0
O2, I0
O2, I0
O2, I0
O2, I0
O2, I0
O2, I0
O2, I0
O2, I0
O2, I0
O2, I0
O2, I0
O2, I0
O2, I0
O2, I0
O2, I0
O2, I0
O2, I0
O2, I0
O2, I0
O2, I0
O2, I0
O2, I0
O2, I0
O2, I0
O2, I0
O2, I0
O2, I0
O2, I0
O2, I0
O2, I0
O2, I0
O2, I0
O2, I0
O2, I0
O2, I0
O2, I0
O2, I0
O2, I0
O2, I0
O2, I0
O2, I0
O2, I0
O2, I0
O2, I0
O2, I0
O2, I0
O2, I0
O2, I0
O2, I0
O2, I0
O2, I0
O2, I0
O2, I0
O2, I0
O2, I0
O2, I0
O2, I0
O2, I0
O2, I0
O2, I0
O2, I0
O2, I0
O2, I0
O2, I0
O2, I0
O2, I0
O2, I0
O2, I0
O2, I0
O2, I0
O2, I0
O2, I0
O2, I0
O2, I0
O2, I0
O2, I0
O2, I0
O2, I0
O2, I0
O2, I0
O2, I0
O2, I0
O2, I0
O2, I0
O2, I0
O2, I0
O2, I0
O2, I0
O2, I0
O2, I0
O2, I0
O2, I0
O2, I0
O2, I0
O2, I0
O2, I0
O2, I0
O2, I0
O2, I0
O2, I0
O2, I0
O2, I0
O2, I0
O2, I0
O2, I0
O2, I0
O2, I0
O2, I0
O2, I0
O2, I0
O2, I0
O2, I0
O2, I0
O2, I0
O2, I0
O2, I0
O2, I0
O2, I0
O2, I0
O2, I0
O2, I0
O2, I0
O2, I0
O2, I0
O2, I0
O2, I0
O2, I0
O2, I0
O2, I0
O2, I0
O2, I0
O2, I0
O2, I0
O2, I0
O2, I0
O2, I0
O2, I0
O2, I0
O2, I0
O2, I0
O2, I0
O2, I0
O2, I0
O2, I0
O2, I0
O2, I0
O2, I0
O2, I0
O2, I0
O2, I0
O2, I0
O2, I0
O2, I0
O2, I0
O2, I0
O2, I0
O2, I0
O2, I0
O2, I0
O2, I0
O2, I0
O2, I0
O2, I0
O2, I0
O2, I0
O2, I0
O2, I0
O2, I0
O2, I0
O2, I0
O2, I0
O2, I0
O2, I0
O2, I0
O2, I0
O2, I0
O2, I0
O2, I0
O2, I0
O2, I0
O2, I0
O2, I0
O2, I0
O2, I0
O2, I0
O2, I0
O2, I0
O2, I0
O2, I0
O2, I0
O2, I0
O2, I0
O2, I0
O2, I0
O2, I0
O2, I0
O2, I0
O2, I0
O2, I0
O2, I0
O2, I0
O2, I0
O2, I0
O2, I0
O2, I0
O2, I0
O2, I0
O2, I0
O2, I0
O2, I0
O2, I0
O2, I0
O2, I0
O2, I0
O2, I0
O2, I0
O2, I0
O2, I0
O2, I0
O2, I0
O2, I0
O2, I0
O2, I0
O2, I0
O2, I0
O2, I0
O2, I0
O2, I0
O2, I0
O2, I0
O2, I0
O2, I0
O2, I0
O2, I0
O2, I0
O2, I0
O2, I0
O2, I0
O2, I0
O2, I0
O2, I0
O2, I0
O2, I0
O2, I0
O2, I0
O2, I0
O2, I0
O2, I0
O2, I0
O2, I0
O2, I0
O2, I0
O2, I0
O2, I0
O2, I0
O2, I0
O2, I0
O2, I0
O2, I0
O2, I0
O2, I0
O2, I0
O2, I0
O2, I0
O1, I1
O1, I1
O1, I1
O2, I0
O2, I0
O2, I0
O2, I0
O2, I0
O2, I0
O2, I0
O2, I0
O2, I0
O2, I0
O2, I0
O2, I0
O2, I0
O2, I0
O2, I0
O2, I0
O2, I0
O2, I0
O2, I0
O2, I0
O2, I0
O2, I0
O2, I0
O2, I0
O2, I0
O2, I0
O2, I0
O2, I0
O2, I0
O2, I0
O2, I0
O2, I0
O2, I0
O2, I0
O2, I0
O2, I0
O2, I0
O2, I0
O2, I0
O2, I0
O2, I0
O2, I0
O2, I0
O2, I0
O2, I0
O2, I0
O2, I0
O2, I0
O2, I0
O2, I0
O2, I0
O2, I0
O2, I0
O2, I0
O2, I0
O2, I0
O2, I0
O2, I0
O2, I0
O2, I0
O2, I0
O2, I0
O2, I0
O2, I0
O2, I0
O2, I0
O2, I0
O2, I0
O2, I0
O2, I0
O2, I0
O2, I0
O2, I0
O2, I0
O2, I0
O2, I0
O2, I0
O2, I0
O2, I0
O2, I0
O2, I0
O2, I0
O2, I0
O2, I0
O2, I0
O2, I0
O2, I0
O2, I0
O2, I0
O2, I0
O2, I0
O2, I0
O2, I0
O2, I0
O2, I0
O2, I0
O2, I0
O2, I0
O2, I0
O2, I0
O2, I0
O2, I0
O2, I0
O2, I0
O2, I0
O2, I0
O2, I0
O2, I0
O2, I0
O2, I0
O2, I0
O2, I0
O2, I0
O2, I0
O2, I0
O2, I0
O2, I0
O2, I0
O2, I0
O2, I0
O2, I0
O2, I0
O2, I0
O2, I0
O2, I0
O2, I0
O2, I0
O2, I0
O2, I0
O2, I0
O2, I0
O2, I0
O2, I0
O2, I0
O2, I0
O2, I0
O2, I0
O2, I0
O2, I0
O2, I0
O2, I0
O2, I0
O2, I0
O2, I0
O2, I0
O2, I0
O2, I0
O2, I0
O2, I0
O2, I0
O2, I0
O2, I0
O2, I0
O2, I0
O2, I0
O2, I0
O2, I0
O2, I0
O2, I0
O2, I0
O2, I0
O2, I0
O2, I0
O2, I0
O2, I0
O2, I0
O2, I0
O2, I0
O2, I0
O2, I0
O2, I0
O2, I0
O2, I0
O2, I0
O2, I0
O2, I0
O2, I0
O2, I0
O2, I0
O2, I0
O2, I0
O2, I0
O2, I0
O2, I0
O2, I0
O2, I0
O2, I0
O2, I0
O2, I0
O2, I0
O2, I0
O2, I0
O2, I0
O2, I0
O2, I0
O2, I0
O2, I0
O2, I0
O2, I0
O2, I0
O2, I0
O2, I0
O2, I0
O2, I0
O2, I0
O2, I0
O2, I0
O2, I0
O2, I0
O2, I0
O2, I0
O2, I0
O2, I0
O2, I0
O2, I0
O2, I0
O2, I0
O2, I0
O2, I0
O2, I0
O2, I0
O2, I0
O2, I0
O2, I0
O2, I0
O2, I0
O2, I0
O2, I0
O2, I0
O2, I0
O2, I0
O2, I0
O2, I0
O2, I0
O2, I0
O2, I0
O2, I0
O2, I0
O2, I0
O2, I0
O2, I0
O2, I0
O2, I0
O2, I0
O2, I0
O2, I0
O2, I0
O2, I0
O2, I0
O2, I0
O2, I0
O2, I0
O2, I0
O2, I0
O2, I0
O2, I0
O2, I0
O2, I0
O2, I0
O2, I0
O2, I0
O2, I0
O2, I0
O2, I0
O2, I0
O2, I0
O2, I0
O2, I0
O2, I0
O2, I0
O2, I0
O2, I0
O2, I0
O2, I0
O2, I0
O2, I0
O2, I0
O2, I0
O2, I0
O2, I0
O2, I0
O2, I0
O2, I0
O2, I0
O2, I0
O2, I0
O2, I0
O2, I0
O2, I0
O2, I0
O2, I0
O2, I0
O2, I0
O2, I0
O2, I0
O2, I0
O2, I0
O2, I0
O2, I0
O2, I0
O2, I0
O2, I0
O2, I0
O2, I0
O2, I0
O2, I0
O2, I0
O2, I0
O2, I0
O2, I0
O2, I0
O2, I0
O2, I0
O2, I0
O2, I0
O2, I0
O2, I0
O2, I0
O2, I0
O2, I0
O2, I0
O2, I0
O2, I0
O2, I0
O2, I0
O2, I0
O2, I0
O2, I0
O2, I0
O2, I0
O2, I0
O2, I0
O2, I0
O2, I0
O2, I0
O2, I0
O2, I0
O2, I0
O2, I0
O2, I0
O2, I0
O2, I0
O2, I0
O2, I0
O2, I0
O2, I0
O2, I0
O2, I0
O2, I0
O2, I0
O2, I0
O2, I0
O2, I0
O2, I0
O2, I0
O2, I0
O2, I0
O2, I0
O2, I0
O2, I0
O2, I0
O2, I0
O2, I0
O2, I0
O2, I0
O2, I0
O2, I0
O2, I0
O2, I0
O2, I0
O2, I0
O2, I0
O2, I0
O2, I0
O2, I0
O2, I0
O2, I0
O2, I0
O2, I0
O2, I0
O2, I0
O2, I0
O2, I0
O2, I0
O2, I0
O2, I0
O2, I0
O2, I0
O2, I0
O2, I0
O2, I0
O2, I0
O2, I0
O2, I0
O2, I0
O2, I0
O2, I0
O2, I0
O2, I0
O2, I0
O2, I0
O2, I0
O2, I0
O2, I0
O2, I0
O2, I0
O2, I0
O2, I0
O2, I0
O2, I0
O2, I0
O2, I0
O2, I0
O2, I0
O2, I0
O2, I0
O2, I0
O2, I0
O2, I0
O2, I0
O2, I0
O2, I0
O2, I0
O2, I0
O2, I0
O2, I0
O2, I0
O2, I0
O2, I0
O2, I0
O2, I0
O2, I0
O2, I0
O2, I0
O2, I0
O2, I0
O2, I0
O2, I0
O2, I0
O2, I0
O2, I0
O2, I0
O2, I0
O2, I0
O2, I0
O2, I0
O2, I0
O2, I0
O2, I0
O2, I0
O2, I0
O2, I0
O2, I0
O2, I0
O2, I0
O2, I0
O2, I0
O2, I0
O2, I0
O2, I0
O2, I0
O2, I0
O2, I0
O2, I0
O2, I0
O2, I0
O2, I0
O2, I0
O2, I0
O2, I0
O2, I0
O2, I0
O2, I0
O2, I0
O2, I0
O2, I0
O2, I0
O2, I0
O2, I0
O2, I0
O2, I0
O2, I0
O2, I0
O2, I0
O2, I0
O2, I0
O2, I0
O2, I0
O2, I0
O2, I0
O2, I0
O2, I0
O2, I0
O2, I0
O2, I0
O2, I0
O2, I0
O2, I0
O2, I0
O2, I0
O2, I0
O2, I0
O2, I0
O2, I0
O2, I0
O2, I0
O2, I0
O2, I0
O2, I0
O2, I0
O2, I0
O2, I0
O2, I0
O2, I0
O2, I0
O2, I0
O2, I0
O2, I0
O2, I0
O2, I0
O2, I0
O2, I0
O2, I0
O2, I0
O2, I0
O2, I0
O2, I0
O2, I0
O2, I0
O2, I0
O2, I0
O2, I0
O2, I0
O2, I0
O2, I0
O2, I0
O2, I0
O2, I0
O2, I0
O2, I0
O2, I0
O2, I0
O2, I0
O2, I0
O2, I0
O2, I0
O2, I0
O2, I0
O2, I0
O2, I0
O2, I0
O2, I0
O2, I0
O2, I0
O2, I0
O2, I0
O2, I0
O2, I0
O2, I0
O2, I0
O2, I0
O2, I0
O2, I0
O2, I0
O2, I0
O2, I0
O2, I0
O2, I0
O2, I0
O2, I0
O2, I0
O2, I0
O2, I0
O2, I0
O2, I0
O2, I0
O2, I0
O2, I0
O2, I0
O2, I0
O2, I0
O2, I0
O2, I0
O2, I0
O2, I0
O2, I0
O2, I0
O2, I0
O2, I0
O2, I0
O2, I0
O2, I0
O2, I0
O2, I0
O2, I0
O2, I0
O2, I0
O2, I0
O2, I0
O2, I0
O2, I0
O2, I0
O2, I0
O2, I0
O2, I0
O2, I0
O2, I0
O2, I0
O2, I0
O2, I0
O2, I0
O2, I0
O2, I0
O2, I0
O2, I0
O2, I0
O2, I0
O2, I0
O2, I0
O2, I0
O2, I0
O2, I0
O2, I0
O2, I0
O2, I0
O2, I0
O2, I0
O2, I0
O2, I0
O2, I0
O2, I0
O2, I0
O2, I0
O2, I0
O2, I0
O2, I0
O2, I0
O2, I0
O2, I0
O2, I0
O2, I0
O2, I0
O2, I0
O2, I0
O2, I0
O2, I0
O2, I0
O2, I0
O2, I0
O2, I0
O2, I0
O2, I0
O2, I0
O2, I0
O2, I0
O2, I0
O2, I0
O2, I0
O2, I0
O2, I0
O2, I0
O2, I0
O2, I0
O2, I0
O2, I0
O2, I0
O2, I0
O2, I0
O2, I0
O2, I0
O2, I0
O2, I0
O2, I0
O2, I0
O2, I0
O2, I0
O2, I0
O2, I0
O2, I0
O2, I0
O2, I0
O2, I0
O2, I0
O2, I0
O2, I0
O2, I0
O2, I0
O2, I0
O2, I0
O2, I0
O2, I0
O2, I0
O2, I0
O2, I0
O2, I0
O2, I0
O2, I0
O2, I0
O2, I0
O2, I0
O2, I0
O2, I0
O2, I0
O2, I0
O2, I0
O2, I0
O2, I0
O2, I0
O2, I0
O2, I0
O2, I0
O2, I0
O2, I0
O2, I0
O2, I0
O2, I0
O2, I0
O2, I0
O2, I0
O2, I0
O2, I0
O2, I0
O2, I0
O2, I0
O2, I0
O2, I0
O2, I0
O2, I0
O2, I0
O2, I0
O2, I0
O2, I0
O2, I0
O2, I0
O2, I0
O2, I0
O2, I0
O2, I0
O2, I0
O2, I0
O2, I0
O2, I0
O2, I0
O2, I0
O2, I0
O2, I0
O2, I0
O2, I0
O2, I0
O2, I0
O2, I0
O2, I0
O2, I0
O2, I0
O2, I0
O2, I0
O2, I0
O2, I0
O2, I0
O2, I0
O2, I0
O2, I0
O2, I0
O2, I0
O2, I0
O2, I0
O2, I0
O2, I0
O2, I0
O2, I0
O2, I0
O2, I0
O2, I0
O2, I0
O2, I0
O2, I0
O2, I0
O2, I0
O2, I0
O2, I0
O2, I0
O2, I0
O2, I0
O2, I0
O2, I0
O2, I0
O2, I0
O2, I0
O2, I0
O2, I0
O2, I0
O2, I0
O2, I0
O2, I0
O2, I0
O2, I0
O2, I0
O2, I0
O2, I0
O2, I0
O2, I0
O2, I0
O2, I0
O2, I0
O2, I0
O2, I0
O2, I0
O2, I0
O2, I0
O2, I0
O2, I0
O2, I0
O2, I0
O2, I0
O2, I0
O2, I0
O2, I0
O2, I0
O2, I0
O2, I0
O2, I0
O2, I0
O2, I0
O2, I0
O2, I0
O2, I0
O2, I0
O2, I0
O2, I0
O2, I0
O2, I0
O2, I0
O2, I0
O2, I0
O2, I0
O2, I0
O2, I0
O2, I0
O2, I0
O2, I0
O2, I0
O2, I0
O2, I0
O2, I0
O2, I0
O2, I0
O2, I0
O2, I0
O2, I0
O2, I0
O2, I0
O2, I0
O2, I0
O2, I0
O2, I0
O2, I0
O2, I0
O2, I0
O2, I0
O2, I0
O2, I0
O2, I0
O2, I0
O2, I0
O2, I0
O2, I0
O2, I0
O2, I0
O2, I0
O2, I0
O2, I0
O2, I0
O2, I0
O2, I0
O2, I0
O2, I0
O2, I0
O2, I0
O2, I0
O2, I0
O2, I0
O2, I0
O2, I0
O2, I0
O2, I0
O2, I0
O2, I0
O2, I0
O2, I0
O2, I0
O2, I0
O2, I0
O2, I0
O2, I0
O2, I0
O2, I0
O2, I0
O2, I0
O2, I0
O2, I0
O2, I0
O2, I0
O2, I0
O2, I0
O2, I0
O2, I0
O2, I0
O2, I0
O2, I0
O2, I0
O2, I0
O2, I0
O2, I0
O2, I0
O2, I0
O2, I0
O2, I0
O2, I0
O2, I0
O2, I0
O2, I0
O2, I0
O2, I0
O2, I0
O2, I0
O2, I0
O2, I0
O2, I0
O2, I0
O2, I0
O2, I0
O2, I0
O2, I0
O2, I0
O2, I0
O2, I0
O2, I0
O2, I0
O2, I0
O2, I0
O2, I0
O2, I0
O2, I0
O2, I0
O2, I0
O2, I0
O2, I0
O2, I0
O2, I0
O2, I0
O2, I0
O2, I0
O2, I0
O2, I0
O2, I0
O2, I0
O2, I0
O2, I0
O2, I0
O2, I0
O2, I0
O2, I0
O2, I0
O2, I0
O2, I0
O2, I0
O2, I0
O2, I0
O2, I0
O2, I0
O2, I0
O2, I0
O2, I0
O2, I0
O2, I0
O2, I0
O2, I0
O2, I0
O2, I0
O2, I0
O2, I0
O2, I0
O2, I0
O2, I0
O2, I0
O2, I0
O2, I0
O2, I0
O2, I0
O2, I0
O2, I0
O2, I0
O2, I0
O2, I0
O2, I0
O2, I0
O2, I0
O2, I0
O2, I0
O2, I0
O2, I0
O2, I0
O2, I0
O2, I0
O2, I0
O2, I0
O2, I0
O2, I0
O2, I0
O2, I0
O2, I0
O2, I0
O2, I0
O2, I0
O2, I0
O2, I0
O2, I0
O2, I0
O2, I0
O2, I0
O2, I0
O2, I0
O2, I0
O2, I0
O2, I0
O2, I0
O2, I0
O2, I0
O2, I0
O2, I0
O2, I0
O2, I0
O2, I0
O2, I0
O2, I0
O2, I0
O2, I0
O2, I0
O2, I0
O2, I0
O2, I0
O2, I0
O2, I0
O2, I0
O2, I0
O2, I0
O2, I0
O2, I0
O2, I0
O2, I0
O2, I0
O2, I0
O2, I0
O2, I0
O2, I0
O2, I0
O2, I0
O2, I0
O2, I0
O2, I0
O2, I0
O2, I0
O2, I0
O2, I0
O2, I0
O2, I0
O2, I0
O2, I0
O2, I0
O2, I0
O2, I0
O2, I0
O2, I0
O2, I0
O2, I0
O2, I0
O2, I0
O2, I0
O2, I0
O2, I0
O2, I0
O2, I0
O2, I0
O2, I0
O2, I0
O2, I0
O2, I0
O2, I0
O2, I0
O2, I0
O2, I0
O2, I0
O2, I0
O2, I0
O2, I0
O2, I0
O2, I0
O2, I0
O2, I0
O2, I0
O2, I0
O2, I0
O2, I0
O2, I0
O2, I0
O2, I0
O2, I0
O2, I0
O2, I0
O2, I0
O2, I0
O2, I0
O2, I0
O2, I0
O2, I0
O2, I0
O2, I0
O2, I0
O2, I0
O2, I0
O2, I0
O2, I0
O2, I0
O2, I0
O2, I0
O2, I0
O2, I0
O2, I0
O2, I0
O2, I0
O2, I0
O2, I0
O2, I0
O2, I0
O2, I0
O2, I0
O2, I0
O2, I0
O2, I0
O2, I0
O2, I0
O2, I0
O2, I0
O2, I0
O2, I0
O2, I0
O2, I0
O2, I0
O2, I0
O2, I0
O2, I0
O2, I0
O2, I0
O2, I0
O2, I0
O2, I0
O2, I0
O2, I0
O2, I0
O2, I0
O2, I0
O2, I0
O2, I0
O2, I0
O2, I0
O2, I0
O2, I0
O2, I0
O2, I0
O2, I0
O2, I0
O2, I0
O2, I0
O2, I0
O2, I0
O2, I0
O2, I0
O2, I0
O2, I0
O2, I0
O2, I0
O2, I0
O2, I0
O2, I0
O2, I0
O2, I0
O2, I0
O2, I0
O2, I0
O2, I0
O2, I0
O2, I0
O2, I0
O2, I0
O2, I0
O2, I0
O2, I0
O2, I0
O2, I0
O2, I0
O2, I0
O2, I0
O2, I0
O2, I0
O2, I0
O2, I0
O2, I0
O2, I0
O2, I0
O2, I0
O2, I0
O2, I0
O2, I0
O2, I0
O2, I0
O2, I0
O2, I0
O2, I0
O2, I0
O2, I0
O2, I0
O2, I0
O2, I0
O2, I0
O2, I0
O2, I0
O2, I0
O2, I0
O2, I0
O2, I0
O2, I0
O2, I0
O2, I0
O2, I0
O2, I0
O2, I0
O2, I0
O2, I0
O2, I0
O2, I0
O2, I0
O2, I0
O2, I0
O2, I0
O2, I0
O2, I0
O2, I0
O2, I0
O2, I0
O2, I0
O2, I0
O2, I0
O2, I0
O2, I0
O2, I0
O2, I0
O2, I0
O2, I0
O2, I0
O2, I0
O2, I0
O2, I0
O2, I0
O2, I0
O2, I0
O2, I0
O2, I0
O2, I0
O2, I0
O2, I0
O2, I0
O2, I0
O2, I0
O2, I0
O2, I0
O2, I0
O2, I0
O2, I0
O2, I0
O2, I0
O2, I0
O2, I0
O2, I0
O2, I0
O2, I0
O2, I0
O2, I0
O2, I0
O2, I0
O2, I0
O2, I0
O2, I0
O2, I0
O2, I0
O2, I0
O2, I0
O2, I0
O2, I0
O2, I0
O2, I0
O2, I0
O2, I0
O2, I0
O2, I0
O2, I0
O2, I0
O2, I0
O2, I0
O2, I0
O2, I0
O2, I0
O2, I0
O2, I0
O2, I0
O2, I0
O2, I0
O2, I0
O2, I0
O2, I0
O2, I0
O2, I0
O2, I0
O2, I0
O2, I0
O2, I0
O2, I0
O2, I0
O2, I0
O2, I0
O2, I0
O2, I0
O2, I0
O2, I0
O2, I0
O2, I0
O2, I0
O2, I0
O2, I0
O2, I0
O2, I0
O2, I0
O2, I0
O2, I0
O2, I0
O2, I0
O2, I0
O2, I0
O2, I0
O2, I0
O2, I0
O2, I0
O2, I0
O2, I0
O2, I0
O2, I0
O2, I0
O2, I0
O2, I0
O2, I0
O2, I0
O2, I0
O2, I0
O2, I0
O2, I0
O2, I0
O2, I0
O2, I0
O2, I0
O2, I0
O2, I0
O2, I0
O2, I0
O2, I0
O2, I0
O2, I0
O2, I0
O2, I0
O2, I0
O2, I0
O2, I0
O2, I0
O2, I0
O2, I0
O2, I0
O2, I0
O2, I0
O2, I0
O2, I0
O2, I0
O2, I0
O2, I0
O2, I0
O2, I0
O2, I0
O2, I0
O2, I0
O2, I0
O2, I0
O2, I0
O2, I0
O2, I0
O2, I0
O2, I0
O2, I0
O2, I0
O2, I0
O2, I0
O2, I0
O2, I0
O2, I0
O2, I0
O2, I0
O2, I0
O2, I0
O2, I0
O2, I0
O2, I0
O2, I0
O2, I0
O2, I0
O2, I0
O2, I0
O2, I0
O2, I0
O2, I0
O2, I0
O2, I0
O2, I0
O2, I0
O2, I0
O2, I0
O2, I0
O2, I0
O2, I0
O2, I0
O2, I0
O2, I0
O2, I0
O2, I0
O2, I0
O2, I0
O2, I0
O2, I0
O2, I0
O2, I0
O2, I0
O2, I0
O2, I0
O2, I0
O2, I0
O2, I0
O2, I0
O2, I0
O2, I0
O2, I0
O2, I0
O2, I0
O2, I0
O2, I0
O2, I0
O2, I0
O2, I0
O2, I0
O2, I0
O2, I0
O2, I0
O2, I0
O2, I0
O2, I0
O2, I0
O2, I0
O2, I0
O2, I0
O2, I0
O2, I0
O2, I0
O2, I0
O2, I0
O2, I0
O2, I0
O2, I0
O2, I0
O2, I0
O2, I0
O2, I0
O2, I0
O2, I0
O2, I0
O2, I0
O2, I0
O2, I0
O2, I0
O2, I0
O2, I0
O2, I0
O2, I0
O2, I0
O2, I0
O2, I0
O2, I0
O2, I0
O2, I0
O2, I0
O2, I0
O2, I0
O2, I0
O2, I0
O2, I0
O2, I0
O2, I0
O2, I0
O2, I0
O2, I0
O2, I0
O2, I0
O2, I0
O2, I0
O2, I0
O2, I0
O2, I0
O2, I0
O2, I0
O2, I0
O2, I0
O2, I0
O2, I0
O2, I0
O2, I0
O2, I0
O2, I0
O2, I0
O2, I0
O2, I0
O2, I0
O2, I0
O2, I0
O2, I0
O2, I0
O2, I0
O2, I0
O2, I0
O2, I0
O2, I0
O2, I0
O2, I0
O2, I0
O2, I0
O2, I0
O2, I0
O2, I0
O2, I0
O2, I0
O2, I0
O2, I0
O2, I0
O2, I0
O2, I0
O2, I0
O2, I0
O2, I0
O2, I0
O2, I0
O2, I0
O2, I0
O2, I0
O2, I0
O2, I0
O2, I0
O2, I0
O2, I0
O2, I0
O2, I0
O2, I0
O2, I0
O2, I0
O2, I0
O2, I0
O2, I0
O2, I0
O2, I0
O2, I0
O2, I0
O2, I0
O2, I0
O2, I0
O2, I0
O2, I0
O2, I0
O2, I0
O2, I0
O2, I0
O2, I0
O2, I0
O2, I0
O2, I0
O2, I0
O2, I0
O2, I0
O2, I0
O2, I0
O2, I0
O2, I0
O2, I0
O2, I0
O2, I0
O2, I0
O2, I0
O2, I0
O2, I0
O2, I0
O2, I0
O2, I0
O2, I0
O2, I0
O2, I0
O2, I0
O2, I0
O2, I0
O2, I0
O2, I0
O2, I0
O2, I0
O2, I0
O2, I0
O2, I0
O2, I0
O2, I0
O2, I0
O2, I0
O2, I0
O2, I0
O2, I0
O2, I0
O2, I0
O2, I0
O2, I0
O2, I0
O2, I0
O2, I0
O2, I0
O2, I0
O2, I0
O2, I0
O2, I0
O2, I0
O2, I0
O2, I0
O2, I0
O2, I0
O2, I0
O2, I0
O2, I0
O2, I0
O2, I0
O2, I0
O2, I0
O2, I0
O2, I0
O2, I0
O2, I0
O2, I0
O2, I0
O2, I0
O2, I0
O2, I0
O2, I0
O2, I0
O2, I0
O2, I0
O2, I0
O2, I0
O2, I0
O2, I0
O2, I0
O2, I0
O2, I0
O2, I0
O2, I0
O2, I0
O2, I0
O2, I0
O2, I0
O2, I0
O2, I0
O2, I0
O2, I0
O2, I0
O2, I0
O2, I0
O2, I0
O2, I0
O2, I0
O2, I0
O2, I0
O2, I0
O2, I0
O2, I0
O2, I0
O2, I0
O2, I0
O2, I0
O2, I0
O2, I0
O2, I0
O2, I0
O2, I0
O2, I0
O2, I0
O2, I0
O2, I0
O2, I0
O2, I0
O2, I0
O2, I0
O2, I0
O2, I0
O2, I0
O2, I0
O2, I0
O2, I0
O2, I0
O2, I0
O2, I0
O2, I0
O2, I0
O2, I0
O2, I0
O2, I0
O2, I0
O2, I0
O2, I0
O2, I0
O2, I0
O2, I0
O2, I0
O2, I0
O2, I0
O2, I0
O2, I0
O2, I0
O2, I0
O2, I0
O2, I0
O2, I0
O2, I0
O2, I0
O2, I0
O2, I0
O2, I0
O2, I0
O2, I0
O2, I0
O2, I0
O2, I0
O2, I0
O2, I0
O2, I0
O2, I0
O2, I0
O2, I0
O2, I0
O2, I0
O2, I0
O2, I0
O2, I0
O2, I0
O2, I0
O2, I0
O2, I0
O2, I0
O2, I0
O2, I0
O2, I0
O2, I0
O2, I0
O2, I0
O2, I0
O2, I0
O2, I0
O2, I0
O2, I0
O2, I0
O2, I0
O2, I0
O2, I0
O2, I0
O2, I0
O2, I0
O2, I0
O2, I0
O2, I0
O2, I0
O2, I0
O2, I0
O2, I0
O2, I0
O2, I0
O2, I0
O2, I0
O2, I0
O2, I0
O2, I0
O2, I0
O2, I0
O2, I0
O2, I0
O2, I0
O2, I0
O2, I0
O2, I0
O2, I0
O2, I0
O2, I0
O2, I0
O2, I0
O2, I0
O2, I0
O2, I0
O2, I0
O2, I0
O2, I0
O2, I0
O2, I0
O2, I0
O2, I0
O2, I0
O2, I0
O2, I0
O2, I0
O2, I0
O2, I0
O2, I0
O2, I0
O2, I0
O2, I0
O2, I0
O2, I0
O2, I0
O2, I0
O2, I0
O2, I0
O2, I0
O2, I0
O2, I0
O2, I0
O2, I0
O2, I0
O2, I0
O2, I0
O2, I0
O2, I0
O2, I0
O2, I0
O2, I0
O2, I0
O2, I0
O2, I0
O2, I0
O2, I0
O2, I0
O2, I0
O2, I0
O2, I0
O2, I0
O2, I0
O2, I0
O2, I0
O2, I0
O2, I0
O2, I0
O2, I0
O2, I0
O2, I0
O2, I0
O2, I0
O2, I0
O2, I0
O2, I0
O2, I0
O2, I0
O2, I0
O2, I0
O2, I0
O2, I0
O2, I0
O2, I0
O2, I0
O2, I0
O2, I0
O2, I0
O2, I0
O2, I0
O2, I0
O2, I0
O2, I0
O2, I0
O2, I0
O2, I0
O2, I0
O2, I0
O2, I0
O2, I0
O2, I0
O2, I0
O2, I0
O2, I0
O2, I0
O2, I0
O2, I0
O2, I0
O2, I0
O2, I0
O2, I0
O2, I0
O2, I0
O2, I0
O2, I0
O2, I0
O2, I0
O2, I0
O2, I0
O2, I0
O2, I0
O2, I0
O2, I0
O2, I0
O2, I0
O2, I0
O2, I0
O2, I0
O2, I0
O2, I0
O2, I0
O2, I0
O2, I0
O2, I0
O2, I0
O2, I0
O2, I0
O2, I0
O2, I0
O2, I0
O2, I0
O2, I0
O2, I0
O2, I0
O2, I0
O2, I0
O2, I0
O2, I0
O2, I0
O2, I0
O2, I0
O2, I0
O2, I0
O2, I0
O2, I0
O2, I0
O2, I0
O2, I0
O2, I0
O2, I0
O2, I0
O2, I0
O2, I0
O2, I0
O2, I0
O2, I0
O2, I0
O2, I0
O2, I0
O2, I0
O2, I0
O2, I0
O2, I0
O2, I0
O2, I0
O2, I0
O2, I0
O2, I0
O2, I0
O2, I0
O2, I0
O2, I0
O2, I0
O2, I0
O2, I0
O2, I0
O2, I0
O2, I0
O2, I0
O2, I0
O2, I0
O2, I0
O2, I0
O2, I0
O2, I0
O2, I0
O2, I0
O2, I0
O2, I0
O2, I0
O2, I0
O2, I0
O2, I0
O2, I0
O2, I0
O2, I0
O2, I0
O2, I0
O2, I0
O2, I0
O2, I0
O2, I0
O2, I0
O2, I0
O2, I0
O2, I0
O2, I0
O2, I0
O2, I0
O2, I0
O2, I0
O2, I0
O2, I0
O2, I0
O2, I0
O2, I0
O2, I0
O2, I0
O2, I0
O2, I0
O2, I0
O2, I0
O2, I0
O2, I0
O2, I0
O2, I0
O2, I0
O2, I0
O2, I0
O2, I0
O2, I0
O2, I0
O2, I0
O2, I0
O2, I0
O2, I0
O2, I0
O2, I0
O2, I0
O2, I0
O2, I0
O2, I0
O2, I0
O2, I0
O2, I0
O2, I0
O2, I0
O2, I0
O2, I0
O2, I0
O2, I0
O2, I0
O2, I0
O2, I0
O2, I0
O2, I0
O2, I0
O2, I0
O2, I0
O2, I0
O2, I0
O2, I0
O2, I0
O2, I0
O2, I0
O2, I0
O2, I0
O2, I0
O2, I0
O2, I0
O2, I0
O2, I0
O2, I0
O2, I0
O2, I0
O2, I0
O2, I0
O2, I0
O2, I0
O2, I0
O2, I0
O2, I0
O2, I0
O2, I0
O2, I0
O2, I0
O2, I0
O2, I0
O2, I0
O2, I0
O2, I0
O2, I0
O2, I0
O2, I0
O2, I0
O2, I0
O2, I0
O2, I0
O2, I0
O2, I0
O2, I0
O2, I0
O2, I0
O2, I0
O2, I0
O2, I0
O2, I0
O2, I0
O2, I0
O2, I0
O2, I0
O2, I0
O2, I0
O2, I0
O2, I0
O2, I0
O2, I0
O2, I0
O2, I0
O2, I0
O2, I0
O2, I0
O2, I0
O2, I0
O2, I0
O2, I0
O2, I0
O2, I0
O2, I0
O2, I0
O2, I0
O2, I0
O2, I0
O2, I0
O2, I0
O2, I0
O2, I0
O2, I0
O2, I0
O2, I0
O2, I0
O2, I0
O2, I0
O2, I0
O2, I0
O2, I0
O2, I0
O2, I0
O2, I0
O2, I0
O2, I0
O2, I0
O2, I0
O2, I0
O2, I0
O2, I0
O2, I0
O2, I0
O2, I0
O2, I0
O2, I0
O2, I0
O2, I0
O2, I0
O2, I0
O2, I0
O2, I0
O2, I0
O2, I0
O2, I0
O2, I0
O2, I0
O2, I0
O2, I0
O2, I0
O2, I0
O2, I0
O2, I0
O2, I0
O2, I0
O2, I0
O2, I0
O2, I0
O2, I0
O2, I0
O2, I0
O2, I0
O2, I0
O2, I0
O2, I0
O2, I0
O2, I0
O2, I0
O2, I0
O2, I0
O2, I0
O2, I0
O2, I0
O2, I0
O2, I0
O2, I0
O2, I0
O2, I0
O2, I0
O2, I0
O2, I0
O2, I0
O2, I0
O2, I0
O2, I0
O2, I0
O2, I0
O2, I0
O2, I0
O2, I0
O2, I0
O2, I0
O2, I0
O2, I0
O2, I0
O2, I0
O2, I0
O2, I0
O2, I0
O2, I0
O2, I0
O2, I0
O2, I0
O2, I0
O2, I0
O2, I0
O2, I0
O2, I0
O2, I0
O2, I0
O2, I0
O2, I0
O2, I0
O2, I0
O2, I0
O2, I0
O2, I0
O2, I0
O2, I0
O2, I0
O2, I0
O2, I0
O2, I0
O2, I0
O2, I0
O2, I0
O2, I0
O2, I0
O2, I0
O2, I0
O2, I0
O2, I0
O2, I0
O2, I0
O2, I0
O2, I0
O2, I0
O2, I0
O2, I0
O2, I0
O2, I0
O2, I0
O2, I0
O2, I0
O2, I0
O2, I0
O2, I0
O2, I0
O2, I0
O2, I0
O2, I0
O2, I0
O2, I0
O2, I0
O2, I0
O2, I0
O2, I0
O2, I0
O2, I0
O2, I0
O2, I0
O2, I0
O2, I0
O2, I0
O2, I0
O2, I0
O2, I0
O2, I0
O2, I0
O2, I0
O2, I0
O2, I0
O2, I0
O2, I0
O2, I0
O2, I0
O2, I0
O2, I0
O2, I0
O2, I0
O2, I0
O2, I0
O2, I0
O2, I0
O2, I0
O2, I0
O2, I0
O2, I0
O2, I0
O2, I0
O2, I0
O2, I0
O2, I0
O2, I0
O2, I0
O2, I0
O2, I0
O2, I0
O2, I0
O2, I0
O2, I0
O2, I0
O2, I0
O2, I0
O2, I0
O2, I0
O2, I0
O2, I0
O2, I0
O2, I0
O2, I0
O2, I0
O2, I0
O2, I0
O2, I0
O2, I0
O2, I0
O2, I0
O2, I0
O2, I0
O2, I0
O2, I0
O2, I0
O2, I0
O2, I0
O2, I0
O2, I0
O2, I0
O2, I0
O2, I0
O2, I0
O2, I0
O2, I0
O2, I0
O2, I0
O2, I0
O2, I0
O2, I0
O2, I0
O2, I0
O2, I0
O2, I0
O2, I0
O2, I0
O2, I0
O2, I0
O2, I0
O2, I0
O2, I0
O2, I0
O2, I0
O2, I0
O2, I0
O2, I0
O2, I0
O2, I0
O2, I0
O2, I0
O2, I0
O2, I0
O2, I0
O2, I0
O2, I0
O2, I0
O2, I0
O2, I0
O2, I0
O2, I0
O2, I0
O2, I0
O2, I0
O2, I0
O2, I0
O2, I0
O2, I0
O2, I0
O2, I0
O2, I0
O2, I0
O2, I0
O2, I0
O2, I0
O2, I0
O2, I0
O2, I0
O2, I0
O2, I0
O2, I0
O2, I0
O2, I0
O2, I0
O2, I0
O2, I0
O2, I0
O2, I0
O2, I0
O2, I0
O2, I0
O2, I0
O2, I0
O2, I0
O2, I0
O2, I0
O2, I0
O2, I0
O2, I0
O2, I0
O2, I0
O2, I0
O2, I0
O2, I0
O2, I0
O2, I0
O2, I0
O2, I0
O2, I0
O2, I0
O2, I0
O2, I0
O2, I0
O2, I0
O2, I0
O2, I0
O2, I0
O2, I0
O2, I0
O2, I0
O2, I0
O2, I0
O2, I0
O2, I0
O2, I0
O2, I0
O2, I0
O2, I0
O2, I0
O2, I0
O2, I0
O2, I0
O2, I0
O2, I0
O2, I0
O2, I0
O2, I0
O2, I0
O2, I0
O2, I0
O2, I0
O2, I0
O2, I0
O2, I0
O2, I0
O2, I0
O2, I0
O2, I0
O2, I0
O2, I0
O2, I0
O2, I0
O2, I0
O2, I0
O2, I0
O2, I0
O2, I0
O2, I0
O2, I0
O2, I0
O2, I0
O2, I0
O2, I0
O2, I0
O2, I0
O2, I0
O2, I0
O2, I0
O2, I0
O2, I0
O2, I0
O2, I0
O2, I0
O2, I0
O2, I0
O2, I0
O2, I0
O2, I0
O2, I0
O2, I0
O2, I0
O2, I0
O2, I0
O2, I0
O2, I0
O2, I0
O2, I0
O2, I0
O2, I0
O2, I0
O2, I0
O2, I0
O2, I0
O2, I0
O2, I0
O2, I0
O2, I0
O2, I0
O2, I0
O2, I0
O2, I0
O2, I0
O2, I0
O2, I0
O2, I0
O2, I0
O2, I0
O2, I0
O2, I0
O2, I0
O2, I0
O2, I0
O2, I0
O2, I0
O2, I0
O2, I0
O2, I0
O2, I0
O2, I0
O2, I0
O2, I0
O2, I0
O2, I0
O2, I0
O2, I0
O2, I0
O2, I0
O2, I0
O2, I0
O2, I0
O2, I0
O2, I0
O2, I0
O2, I0
O2, I0
O2, I0
O2, I0
O2, I0
O2, I0
O2, I0
O2, I0
O2, I0
O2, I0
O2, I0
O2, I0
O2, I0
O2, I0
O2, I0
O2, I0
O2, I0
O2, I0
O2, I0
O2, I0
O2, I0
O2, I0
O2, I0
O2, I0
O2, I0
O2, I0
O2, I0
O2, I0
O2, I0
O2, I0
O2, I0
O2, I0
O2, I0
O2, I0
O2, I0
O2, I0
O2, I0
O2, I0
O2, I0
O2, I0
O2, I0
O2, I0
O2, I0
O2, I0
O2, I0
O2, I0
O2, I0
O2, I0
O2, I0
O2, I0
O2, I0
O2, I0
O2, I0
O2, I0
O2, I0
O2, I0
O2, I0
O2, I0
O2, I0
O2, I0
O2, I0
O2, I0
O2, I0
O2, I0
O2, I0
O2, I0
O2, I0
O2, I0
O2, I0
O2, I0
O2, I0
O2, I0
O2, I0
O2, I0
O2, I0
O2, I0
O2, I0
O2, I0
O2, I0
O2, I0
O2, I0
O2, I0
O2, I0
O2, I0
O2, I0
O2, I0
O2, I0
O2, I0
O2, I0
O2, I0
O2, I0
O2, I0
O2, I0
O2, I0
O2, I0
O2, I0
O2, I0
O2, I0
O2, I0
O2, I0
O2, I0
O2, I0
O2, I0
O2, I0
O2, I0
O2, I0
O2, I0
O2, I0
O2, I0
O2, I0
O2, I0
O2, I0
O2, I0
O2, I0
O2, I0
O2, I0
O2, I0
O2, I0
O2, I0
O2, I0
O2, I0
O2, I0
O2, I0
O2, I0
O2, I0
O2, I0
O2, I0
O2, I0
O2, I0
O2, I0
O2, I0
O2, I0
O2, I0
O2, I0
O2, I0
O2, I0
O2, I0
O2, I0
O2, I0
O2, I0
O2, I0
O2, I0
O2, I0
O2, I0
O2, I0
O2, I0
O2, I0
O2, I0
O2, I0
O2, I0
O2, I0
O2, I0
O2, I0
O2, I0
O2, I0
O2, I0
O2, I0
O2, I0
O2, I0
O2, I0
O2, I0
O2, I0
O2, I0
O2, I0
O2, I0
O2, I0
O2, I0
O2, I0
O2, I0
O2, I0
O2, I0
O2, I0
O2, I0
O2, I0
O2, I0
O2, I0
O2, I0
O2, I0
O2, I0
O2, I0
O2, I0
O2, I0
O2, I0
O2, I0
O2, I0
O2, I0
O2, I0
O2, I0
O2, I0
O2, I0
O2, I0
O2, I0
O2, I0
O2, I0
O2, I0
O2, I0
O2, I0
O2, I0
O2, I0
O2, I0
O2, I0
O2, I0
O2, I0
O2, I0
O2, I0
O2, I0
O2, I0
O2, I0
O2, I0
O2, I0
O2, I0
O2, I0
O2, I0
O2, I0
O2, I0
O2, I0
O2, I0
O2, I0
O2, I0
O2, I0
O2, I0
O2, I0
O2, I0
O2, I0
O2, I0
O2, I0
O2, I0
O2, I0
O2, I0
O2, I0
O2, I0
O2, I0
O2, I0
O2, I0
O2, I0
O2, I0
O2, I0
O2, I0
O2, I0
O2, I0
O2, I0
O2, I0
O2, I0
O2, I0
O2, I0
O2, I0
O2, I0
O2, I0
O2, I0
O2, I0
O2, I0
O2, I0
O2, I0
O2, I0
O2, I0
O2, I0
O2, I0
O2, I0
O2, I0
O2, I0
O2, I0
O2, I0
O2, I0
O2, I0
O2, I0
O2, I0
O2, I0
O2, I0
O2, I0
O2, I0
O2, I0
O2, I0
O2, I0
O2, I0
O2, I0
O2, I0
O2, I0
O2, I0
O2, I0
O2, I0
O2, I0
O2, I0
O2, I0
O2, I0
O2, I0
O2, I0
O2, I0
O2, I0
O2, I0
O2, I0
O2, I0
O2, I0
O2, I0
O2, I0
O2, I0
O2, I0
O2, I0
O2, I0
O2, I0
O2, I0
O2, I0
O2, I0
O2, I0
O2, I0
O2, I0
O2, I0
O2, I0
O2, I0
O2, I0
O2, I0
O2, I0
O2, I0
O2, I0
O2, I0
O2, I0
O2, I0
O2, I0
O2, I0
O2, I0
O2, I0
O2, I0
O2, I0
O2, I0
O2, I0
O2, I0
O2, I0
O2, I0
O2, I0
O2, I0
O2, I0
O2, I0
O2, I0
O2, I0
O2, I0
O2, I0
O2, I0
O2, I0
O2, I0
O2, I0
O2, I0
O2, I0
O2, I0
O2, I0
O2, I0
O2, I0
O2, I0
O2, I0
O2, I0
O2, I0
O2, I0
O2, I0
O2, I0
O2, I0
O2, I0
O2, I0
O2, I0
O2, I0
O2, I0
O2, I0
O2, I0
O2, I0
O2, I0
O2, I0
O2, I0
O2, I0
O2, I0
O2, I0
O2, I0
O2, I0
O2, I0
O2, I0
O2, I0
O2, I0
O2, I0
O2, I0
O2, I0
O2, I0
O2, I0
O2, I0
O2, I0
O2, I0
O2, I0
O2, I0
O2, I0
O2, I0
O2, I0
O2, I0
O2, I0
O2, I0
O2, I0
O2, I0
O2, I0
O2, I0
O2, I0
O2, I0
O2, I0
O2, I0
O2, I0
O2, I0
O2, I0
O2, I0
O2, I0
O2, I0
O2, I0
O2, I0
O2, I0
O2, I0
O2, I0
O2, I0
O2, I0
O2, I0
O2, I0
O2, I0
O2, I0
O2, I0
O2, I0
O2, I0
O2, I0
O2, I0
O2, I0
O2, I0
O2, I0
O2, I0
O2, I0
O2, I0
O2, I0
O2, I0
O2, I0
O2, I0
O2, I0
O2, I0
O2, I0
O2, I0
O2, I0
O2, I0
O2, I0
O2, I0
O2, I0
O2, I0
O2, I0
O2, I0
O2, I0
O2, I0
O2, I0
O2, I0
O2, I0
O2, I0
O2, I0
O2, I0
O2, I0
O2, I0
O2, I0
O2, I0
O2, I0
O2, I0
O2, I0
O2, I0
O2, I0
O2, I0
O2, I0
O2, I0
O2, I0
O2, I0
O2, I0
O2, I0
O2, I0
O2, I0
O2, I0
O2, I0
O2, I0
O2, I0
O2, I0
O2, I0
O2, I0
O2, I0
O2, I0
O2, I0
O2, I0
O2, I0
O2, I0
O2, I0
O2, I0
O2, I0
O2, I0
O2, I0
O2, I0
O2, I0
O2, I0
O2, I0
O2, I0
O2, I0
O2, I0
O2, I0
O2, I0
O2, I0
O2, I0
O2, I0
O2, I0
O2, I0
O2, I0
O2, I0
O2, I0
O2, I0
O2, I0
O2, I0
O2, I0
O2, I0
O2, I0
O2, I0
O2, I0
O2, I0
O2, I0
O2, I0
O2, I0
O2, I0
O2, I0
O2, I0
O2, I0
O2, I0
O2, I0
O2, I0
O2, I0
O2, I0
O2, I0
O2, I0
O2, I0
O2, I0
O2, I0
O2, I0
O2, I0
O2, I0
O2, I0
O2, I0
O2, I0
O2, I0
O2, I0
O2, I0
O2, I0
O2, I0
O2, I0
O2, I0
O2, I0
O2, I0
O2, I0
O2, I0
O2, I0
O2, I0
O2, I0
O2, I0
O2, I0
O2, I0
O2, I0
O2, I0
O2, I0
O2, I0
O2, I0
O2, I0
O2, I0
O2, I0
O2, I0
O2, I0
O2, I0
O2, I0
O2, I0
O2, I0
O2, I0
O2, I0
O2, I0
O2, I0
O2, I0
O2, I0
O2, I0
O2, I0
O2, I0
O2, I0
O2, I0
O2, I0
O2, I0
O2, I0
O2, I0
O2, I0
O2, I0
O2, I0
O2, I0
O2, I0
O2, I0
O2, I0
O2, I0
O2, I0
O2, I0
O2, I0
O2, I0
O2, I0
O2, I0
O2, I0
O2, I0
O2, I0
O2, I0
O2, I0
O2, I0
O2, I0
O2, I0
O2, I0
O2, I0
O2, I0
O2, I0
O2, I0
O2, I0
O2, I0
O2, I0
O2, I0
O2, I0
O2, I0
O2, I0
O2, I0
O2, I0
O2, I0
O2, I0
O2, I0
O2, I0
O2, I0
O2, I0
O2, I0
O2, I0
O2, I0
O2, I0
O2, I0
O2, I0
O2, I0
O2, I0
O2, I0
O2, I0
O2, I0
O2, I0
O2, I0
O2, I0
O2, I0
O2, I0
O2, I0
O2, I0
O2, I0
O2, I0
O2, I0
O2, I0
O2, I0
O2, I0
O2, I0
O2, I0
O2, I0
O2, I0
O2, I0
O2, I0
O2, I0
O2, I0
O2, I0
O2, I0
O2, I0
O2, I0
O2, I0
O2, I0
O2, I0
O2, I0
O2, I0
O2, I0
O2, I0
O2, I0
O2, I0
O2, I0
O2, I0
O2, I0
O2, I0
O2, I0
O2, I0
O2, I0
O2, I0
O2, I0
O2, I0
O2, I0
O2, I0
O2, I0
O2, I0
O2, I0
O2, I0
O2, I0
O2, I0
O2, I0
O2, I0
O2, I0
O2, I0
O2, I0
O2, I0
O2, I0
O2, I0
O2, I0
O2, I0
O2, I0
O2, I0
O2, I0
O2, I0
O2, I0
O2, I0
O2, I0
O2, I0
O2, I0
O2, I0
O2, I0
O2, I0
O2, I0
O2, I0
O2, I0
O2, I0
O2, I0
O2, I0
O2, I0
O2, I0
O2, I0
O2, I0
O2, I0
O2, I0
O2, I0
O2, I0
O2, I0
O2, I0
O2, I0
O2, I0
O2, I0
O2, I0
O2, I0
O2, I0
O2, I0
O2, I0
O2, I0
O2, I0
O2, I0
O2, I0
O2, I0
O2, I0
O2, I0
O2, I0
O2, I0
O2, I0
O2, I0
O2, I0
O2, I0
O2, I0
O2, I0
O2, I0
O2, I0
O2, I0
O2, I0
O2, I0
O2, I0
O2, I0
O2, I0
O2, I0
O2, I0
O2, I0
O2, I0
O2, I0
O2, I0
O2, I0
O2, I0
O2, I0
O2, I0
O2, I0
O2, I0
O2, I0
O2, I0
O2, I0
O2, I0
O2, I0
O2, I0
O2, I0
O2, I0
O2, I0
O2, I0
O2, I0
O2, I0
O2, I0
O2, I0
O2, I0
O2, I0
O2, I0
O2, I0
O2, I0
O2, I0
O2, I0
O2, I0
O2, I0
O2, I0
O2, I0
O2, I0
O2, I0
O2, I0
O2, I0
O2, I0
O2, I0
O2, I0
O2, I0
O2, I0
O2, I0
O2, I0
O2, I0
O2, I0
O2, I0
O2, I0
O2, I0
O2, I0
O2, I0
O2, I0
O2, I0
O2, I0
O2, I0
O2, I0
O2, I0
O2, I0
O2, I0
O2, I0
O2, I0
O2, I0
O2, I0
O2, I0
O2, I0
O2, I0
O2, I0
O2, I0
O2, I0
O2, I0
O2, I0
O2, I0
O2, I0
O2, I0
O2, I0
O2, I0
O2, I0
O2, I0
O2, I0
O2, I0
O2, I0
O2, I0
O2, I0
O2, I0
O2, I0
O2, I0
O2, I0
O2, I0
O2, I0
O2, I0
O2, I0
O2, I0
O2, I0
O2, I0
O2, I0
O2, I0
O2, I0
O2, I0
O2, I0
O2, I0
O2, I0
O2, I0
O2, I0
O2, I0
O2, I0
O2, I0
O2, I0
O2, I0
O2, I0
O2, I0
O2, I0
O2, I0
O2, I0
O2, I0
O2, I0
O2, I0
O2, I0
O2, I0
O2, I0
O2, I0
O2, I0
O2, I0
O2, I0
O2, I0
O2, I0
O2, I0
O2, I0
O2, I0
O2, I0
O2, I0
O2, I0
O2, I0
O2, I0
O2, I0
O2, I0
O2, I0
O2, I0
O2, I0
O2, I0
O2, I0
O2, I0
O2, I0
O2, I0
O2, I0
O2, I0
O2, I0
O2, I0
O2, I0
O2, I0
O2, I0
O2, I0
O2, I0
O2, I0
O2, I0
O2, I0
O2, I0
O2, I0
O2, I0
O2, I0
O2, I0
O2, I0
O2, I0
O2, I0
O2, I0
O2, I0
O2, I0
O2, I0
O2, I0
O2, I0
O2, I0
O2, I0
O2, I0
O2, I0
O2, I0
O2, I0
O2, I0
O2, I0
O2, I0
O2, I0
O2, I0
O2, I0
O2, I0
O2, I0
O2, I0
O2, I0
O2, I0
O2, I0
O2, I0
O2, I0
O2, I0
O2, I0
O2, I0
O2, I0
O2, I0
O2, I0
O2, I0
O2, I0
O2, I0
O2, I0
O2, I0
O2, I0
O2, I0
O2, I0
O2, I0
O2, I0
O2, I0
O2, I0
O2, I0
O2, I0
O2, I0
O2, I0
O2, I0
O2, I0
O2, I0
O2, I0
O2, I0
O2, I0
O2, I0
O2, I0
O2, I0
O2, I0
O2, I0
O2, I0
O2, I0
O2, I0
O2, I0
O2, I0
O2, I0
O2, I0
O2, I0
O2, I0
O2, I0
O2, I0
O2, I0
O2, I0
O2, I0
O2, I0
O2, I0
O2, I0
O2, I0
O2, I0
O2, I0
O2, I0
O2, I0
O2, I0
O2, I0
O2, I0
O2, I0
O2, I0
O2, I0
O2, I0
O2, I0
O2, I0
O2, I0
O2, I0
O2, I0
O2, I0
O2, I0
O2, I0
O2, I0
O2, I0
O2, I0
O2, I0
O2, I0
O2, I0
O2, I0
O2, I0
O2, I0
O2, I0
O2, I0
O2, I0
O2, I0
O2, I0
O2, I0
O2, I0
O2, I0
O2, I0
O2, I0
O2, I0
O2, I0
O2, I0
O2, I0
O2, I0
O2, I0
O2, I0
O2, I0
O2, I0
O2, I0
O2, I0
O2, I0
O2, I0
O2, I0
O2, I0
O2, I0
O2, I0
O2, I0
O2, I0
O2, I0
O2, I0
O2, I0
O2, I0
O2, I0
O2, I0
O2, I0
O2, I0
O2, I0
O2, I0
O2, I0
O2, I0
O2, I0
O2, I0
O2, I0
O2, I0
O2, I0
O2, I0
O2, I0
O2, I0
O2, I0
O2, I0
O2, I0
O2, I0
O2, I0
O2, I0
O2, I0
O2, I0
O2, I0
O2, I0
O2, I0
O2, I0
O2, I0
O2, I0
O2, I0
O2, I0
O2, I0
O2, I0
O2, I0
O2, I0
O2, I0
O2, I0
O2, I0
O2, I0
O2, I0
O2, I0
O2, I0
O2, I0
O2, I0
O2, I0
O2, I0
O2, I0
O2, I0
O2, I0
O2, I0
O2, I0
O2, I0
O2, I0
O2, I0
O2, I0
O2, I0
O2, I0
O2, I0
O2, I0
O2, I0
O2, I0
O2, I0
O2, I0
O2, I0
O2, I0
O2, I0
O2, I0
O2, I0
O2, I0
O2, I0
O2, I0
O2, I0
O2, I0
O2, I0
O2, I0
O2, I0
O2, I0
O2, I0
O2, I0
O2, I0
O2, I0
O2, I0
O2, I0
O2, I0
O2, I0
O2, I0
O2, I0
O2, I0
O2, I0
O2, I0
O2, I0
O2, I0
O2, I0
O2, I0
O2, I0
O2, I0
O2, I0
O2, I0
O2, I0
O2, I0
O2, I0
O2, I0
O2, I0
O2, I0
O2, I0
O2, I0
O2, I0
O2, I0
O2, I0
O2, I0
O2, I0
O2, I0
O2, I0
O2, I0
O2, I0
O2, I0
O2, I0
O2, I0
O2, I0
O2, I0
O2, I0
O2, I0
O2, I0
O2, I0
O2, I0
O2, I0
O2, I0
O2, I0
O2, I0
O2, I0
O2, I0
O2, I0
O2, I0
O2, I0
O2, I0
O2, I0
O2, I0
O2, I0
O2, I0
O2, I0
O2, I0
O2, I0
O2, I0
O2, I0
O2, I0
O2, I0
O2, I0
O2, I0
O2, I0
O2, I0
O2, I0
O2, I0
O2, I0
O2, I0
O2, I0
O2, I0
O2, I0
O2, I0
O2, I0
O2, I0
O2, I0
O2, I0
O2, I0
O2, I0
O2, I0
O2, I0
O2, I0
O2, I0
O2, I0
O2, I0
O2, I0
O2, I0
O2, I0
O2, I0
O2, I0
O2, I0
O2, I0
O2, I0
O2, I0
O2, I0
O2, I0
O2, I0
O2, I0
O2, I0
O2, I0
O2, I0
O2, I0
O2, I0
O2, I0
O2, I0
O2, I0
O2, I0
O2, I0
O2, I0
O2, I0
O2, I0
O2, I0
O2, I0
O2, I0
O2, I0
O2, I0
O2, I0
O2, I0
O2, I0
O2, I0
O2, I0
O2, I0
O2, I0
O2, I0
O2, I0
O2, I0
O2, I0
O2, I0
O2, I0
O2, I0
O2, I0
O2, I0
O2, I0
O2, I0
O2, I0
O2, I0
O2, I0
O2, I0
O2, I0
O2, I0
O2, I0
O2, I0
O2, I0
O2, I0
O2, I0
O2, I0
O2, I0
O2, I0
O2, I0
O2, I0
O2, I0
O2, I0
O2, I0
O2, I0
O2, I0
O2, I0
O2, I0
O2, I0
O2, I0
O2, I0
O2, I0
O2, I0
O2, I0
O2, I0
O2, I0
O2, I0
O2, I0
O2, I0
O2, I0
O2, I0
O2, I0
O2, I0
O2, I0
O2, I0
O2, I0
O2, I0
O2, I0
O2, I0
O2, I0
O2, I0
O2, I0
O2, I0
O2, I0
O2, I0
O2, I0
O2, I0
O2, I0
O2, I0
O2, I0
O2, I0
O2, I0
O2, I0
O2, I0
O2, I0
O2, I0
O2, I0
O2, I0
O2, I0
O2, I0
O2, I0
O2, I0
O2, I0
O2, I0
O2, I0
O2, I0
O2, I0
O2, I0
O2, I0
O2, I0
O2, I0
O2, I0
O2, I0
O2, I0
O2, I0
O2, I0
O2, I0
O2, I0
O2, I0
O2, I0
O2, I0
O2, I0
O2, I0
O2, I0
O2, I0
O2, I0
O2, I0
O2, I0
O2, I0
O2, I0
O2, I0
O2, I0
O2, I0
O2, I0
O2, I0
O2, I0
O2, I0
O2, I0
O2, I0
O2, I0
O2, I0
O2, I0
O2, I0
O2, I0
O2, I0
O2, I0
O2, I0
O2, I0
O2, I0
O2, I0
O2, I0
O2, I0
O2, I0
O2, I0
O2, I0
O2, I0
O2, I0
O2, I0
O2, I0
O2, I0
O2, I0
O2, I0
O2, I0
O2, I0
O2, I0
O2, I0
O2, I0
O2, I0
O2, I0
O2, I0
O2, I0
O2, I0
O2, I0
O2, I0
O2, I0
O2, I0
O2, I0
O2, I0
O2, I0
O2, I0
O2, I0
O2, I0
O2, I0
O2, I0
O2, I0
O2, I0
O2, I0
O2, I0
O2, I0
O2, I0
O2, I0
O2, I0
O2, I0
O2, I0
O2, I0
O2, I0
O2, I0
O2, I0
O2, I0
O2, I0
O2, I0
O2, I0
O2, I0
O2, I0
O2, I0
O2, I0
O2, I0
O2, I0
O2, I0
O2, I0
O2, I0
O2, I0
O2, I0
O2, I0
O2, I0
O2, I0
O2, I0
O2, I0
O2, I0
O2, I0
O2, I0
O2, I0
O2, I0
O2, I0
O2, I0
O2, I0
O2, I0
O2, I0
O2, I0
O2, I0
O2, I0
O2, I0
O2, I0
O2, I0
O2, I0
O2, I0
O2, I0
O2, I0
O2, I0
O2, I0
O2, I0
O2, I0
O2, I0
O2, I0
O2, I0
O2, I0
O2, I0
O2, I0
O2, I0
O2, I0
O2, I0
O2, I0
O2, I0
O2, I0
O2, I0
O2, I0
O2, I0
O2, I0
O2, I0
O2, I0
O2, I0
O2, I0
O2, I0
O2, I0
O2, I0
O2, I0
O2, I0
O2, I0
O2, I0
O2, I0
O2, I0
O2, I0
O2, I0
O2, I0
O2, I0
O2, I0
O2, I0
O2, I0
O2, I0
O2, I0
O2, I0
O2, I0
O2, I0
O2, I0
O2, I0
O2, I0
O2, I0
O2, I0
O2, I0
O2, I0
O2, I0
O2, I0
O2, I0
O2, I0
O2, I0
O2, I0
O2, I0
O2, I0
O2, I0
O2, I0
O2, I0
O2, I0
O2, I0
O2, I0
O2, I0
O2, I0
O2, I0
O2, I0
O2, I0
O2, I0
O2, I0
O2, I0
O2, I0
O2, I0
O2, I0
O2, I0
O2, I0
O2, I0
O2, I0
O2, I0
O2, I0
O2, I0
O2, I0
O2, I0
O2, I0
O2, I0
O2, I0
O2, I0
O2, I0
O2, I0
O2, I0
O2, I0
O2, I0
O2, I0
O2, I0
O2, I0
O2, I0
O2, I0
O2, I0
O2, I0
O2, I0
O2, I0
O2, I0
O2, I0
O2, I0
O2, I0
O2, I0
O2, I0
O2, I0
O2, I0
O2, I0
O2, I0
O2, I0
O2, I0
O2, I0
O2, I0
O2, I0
O2, I0
O2, I0
O2, I0
O2, I0
O2, I0
O2, I0
O2, I0
O2, I0
O2, I0
O2, I0
O2, I0
O2, I0
O2, I0
O2, I0
O2, I0
O2, I0
O2, I0
O2, I0
O2, I0
O2, I0
O2, I0
O2, I0
O2, I0
O2, I0
O2, I0
O2, I0
O2, I0
O2, I0
O2, I0
O2, I0
O2, I0
O2, I0
O2, I0
O2, I0
O2, I0
O2, I0
O2, I0
O2, I0
O2, I0
O2, I0
O2, I0
O2, I0
O2, I0
O2, I0
O2, I0
O2, I0
O2, I0
O2, I0
O2, I0
O2, I0
O2, I0
O2, I0
O2, I0
O2, I0
O2, I0
O2, I0
O2, I0
O2, I0
O2, I0
O2, I0
O2, I0
O2, I0
O2, I0
O2, I0
O2, I0
O2, I0
O2, I0
O2, I0
O2, I0
O2, I0
O2, I0
O2, I0
O2, I0
O2, I0
O2, I0
O2, I0
O2, I0
O2, I0
O2, I0
O2, I0
O2, I0
O2, I0
O2, I0
O2, I0
O2, I0
O2, I0
O2, I0
O2, I0
O2, I0
O2, I0
O2, I0
O2, I0
O2, I0
O2, I0
O2, I0
O2, I0
O2, I0
O2, I0
O2, I0
O2, I0
O2, I0
O2, I0
O2, I0
O2, I0
O2, I0
O2, I0
O2, I0
O2, I0
O2, I0
O2, I0
O2, I0
O2, I0
O2, I0
O2, I0
O2, I0
O2, I0
O2, I0
O2, I0
O2, I0
O2, I0
O2, I0
O2, I0
O2, I0
O2, I0
O2, I0
O2, I0
O2, I0
O2, I0
O2, I0
O2, I0
O2, I0
O2, I0
O2, I0
O2, I0
O2, I0
O2, I0
O2, I0
O2, I0
O2, I0
O2, I0
O2, I0
O2, I0
O2, I0
O2, I0
O2, I0
O2, I0
O2, I0
O2, I0
O2, I0
O2, I0
O2, I0
O2, I0
O2, I0
O2, I0
O2, I0
O2, I0
O2, I0
O2, I0
O2, I0
O2, I0
O2, I0
O2, I0
O2, I0
O2, I0
O2, I0
O2, I0
O2, I0
O2, I0
O2, I0
O2, I0
O2, I0
O2, I0
O2, I0
O2, I0
O2, I0
O2, I0
O2, I0
O2, I0
O2, I0
O2, I0
O2, I0
O2, I0
O2, I0
O2, I0
O2, I0
O2, I0
O2, I0
O2, I0
O2, I0
O2, I0
O2, I0
O2, I0
O2, I0
O2, I0
O2, I0
O2, I0
O2, I0
O2, I0
O2, I0
O2, I0
O2, I0
O2, I0
O2, I0
O2, I0
O2, I0
O2, I0
O2, I0
O2, I0
O2, I0
O2, I0
O2, I0
O2, I0
O2, I0
O2, I0
O2, I0
O2, I0
O2, I0
O2, I0
O2, I0
O2, I0
O2, I0
O2, I0
O2, I0
O2, I0
O2, I0
O2, I0
O2, I0
O2, I0
O2, I0
O2, I0
O2, I0
O2, I0
O2, I0
O2, I0
O2, I0
O2, I0
O2, I0
O2, I0
O2, I0
O2, I0
O2, I0
O2, I0
O2, I0
O2, I0
O2, I0
O2, I0
O2, I0
O2, I0
O2, I0
O2, I0
O2, I0
O2, I0
O2, I0
O2, I0
O2, I0
O2, I0
O2, I0
O2, I0
O2, I0
O2, I0
O2, I0
O2, I0
O2, I0
O2, I0
O2, I0
O2, I0
O2, I0
O2, I0
O2, I0
O2, I0
O2, I0
O2, I0
O2, I0
O2, I0
O2, I0
O2, I0
O2, I0
O2, I0
O2, I0
O2, I0
O2, I0
O2, I0
O2, I0
O2, I0
O2, I0
O2, I0
O2, I0
O2, I0
O2, I0
O2, I0
O2, I0
O2, I0
O2, I0
O2, I0
O2, I0
O2, I0
O2, I0
O2, I0
O2, I0
O2, I0
O2, I0
O2, I0
O2, I0
O2, I0
O2, I0
O2, I0
O2, I0
O2, I0
O2, I0
O2, I0
O2, I0
O2, I0
O2, I0
O2, I0
O2, I0
O2, I0
O2, I0
O2, I0
O2, I0
O2, I0
O2, I0
O2, I0
O2, I0
O2, I0
O2, I0
O2, I0
O2, I0
O2, I0
O2, I0
O2, I0
O2, I0
O2, I0
O2, I0
O2, I0
O2, I0
O2, I0
O2, I0
O2, I0
O2, I0
O2, I0
O2, I0
O2, I0
O2, I0
O2, I0
O2, I0
O2, I0
O2, I0
O2, I0
O2, I0
O2, I0
O2, I0
O2, I0
O2, I0
O2, I0
O2, I0
O2, I0
O2, I0
O2, I0
O2, I0
O2, I0
O2, I0
O2, I0
O2, I0
O2, I0
O2, I0
O2, I0
O2, I0
O2, I0
O2, I0
O2, I0
O2, I0
O2, I0
O2, I0
O2, I0
O2, I0
O2, I0
O2, I0
O2, I0
O2, I0
O2, I0
O2, I0
O2, I0
O2, I0
O2, I0
O2, I0
O2, I0
O2, I0
O2, I0
O2, I0
O2, I0
O2, I0
O2, I0
O2, I0
O2, I0
1590826262702
O1, I0
O1, I0
O1, I0
O2, I0
O2, I0
O2, I0
O2, I0
O2, I0
O2, I0
O2, I0
O2, I0
O2, I0
O2, I0
O2, I0
O2, I0
O2, I0
O2, I0
O2, I0
O2, I0
O2, I0
O2, I0
O2, I0
O2, I0
O2, I0
O2, I0
O2, I0
O2, I0
O2, I0
O2, I0
O2, I0
O2, I0
O2, I0
O2, I0
O2, I0
O2, I0
O2, I0
O2, I0
O2, I0
O2, I0
O2, I0
O2, I0
O2, I0
O2, I0
O2, I0
O2, I0
O2, I0
O2, I0
O2, I0
O2, I0
O2, I0
O2, I0
O2, I0
O2, I0
O2, I0
O2, I0
O2, I0
O2, I0
O2, I0
O2, I0
O2, I0
O2, I0
O2, I0
O2, I0
O2, I0
O2, I0
O2, I0
O2, I0
O2, I0
O2, I0
O2, I0
O2, I0
O2, I0
O2, I0
O2, I0
O2, I0
O2, I0
O2, I0
O2, I0
O2, I0
O2, I0
O2, I0
O2, I0
O2, I0
O2, I0
O2, I0
O2, I0
O2, I0
O2, I0
O2, I0
O2, I0
O2, I0
O2, I0
O2, I0
O2, I0
O2, I0
O2, I0
O2, I0
O2, I0
O2, I0
O2, I0
O2, I0
O2, I0
O2, I0
O2, I0
O2, I0
O2, I0
O2, I0
O2, I0
O2, I0
O2, I0
O2, I0
O2, I0
O2, I0
O2, I0
O2, I0
O2, I0
O2, I0
O2, I0
O2, I0
O2, I0
O2, I0
O2, I0
O2, I0
O2, I0
O2, I0
O2, I0
O2, I0
O2, I0
O2, I0
O2, I0
O2, I0
O2, I0
O2, I0
O2, I0
O2, I0
O2, I0
O2, I0
O2, I0
O2, I0
O2, I0
O2, I0
O2, I0
O2, I0
O2, I0
O2, I0
O2, I0
O2, I0
O2, I0
O2, I0
O2, I0
O2, I0
O2, I0
O2, I0
O2, I0
O2, I0
O2, I0
O2, I0
O2, I0
O2, I0
O2, I0
O2, I0
O2, I0
O2, I0
O2, I0
O2, I0
O2, I0
O2, I0
O2, I0
O2, I0
O2, I0
O2, I0
O2, I0
O2, I0
O2, I0
O2, I0
O2, I0
O2, I0
O2, I0
O2, I0
O2, I0
O2, I0
O2, I0
O2, I0
O2, I0
O2, I0
O2, I0
O2, I0
O2, I0
O2, I0
O2, I0
O2, I0
O2, I0
O2, I0
O2, I0
O2, I0
O2, I0
O2, I0
O2, I0
O2, I0
O2, I0
O2, I0
O2, I0
O2, I0
O2, I0
O2, I0
O2, I0
O2, I0
O2, I0
O2, I0
O2, I0
O2, I0
O2, I0
O2, I0
O2, I0
O2, I0
O2, I0
O2, I0
O2, I0
O2, I0
O2, I0
O2, I0
O2, I0
O2, I0
O2, I0
O2, I0
O2, I0
O2, I0
O2, I0
O2, I0
O2, I0
O2, I0
O2, I0
O2, I0
O2, I0
O2, I0
O2, I0
O2, I0
O2, I0
O2, I0
O2, I0
O2, I0
O2, I0
O2, I0
O2, I0
O2, I0
O2, I0
O2, I0
O2, I0
O2, I0
O2, I0
O2, I0
O2, I0
O2, I0
O2, I0
O2, I0
O2, I0
O2, I0
O2, I0
O2, I0
O2, I0
O2, I0
O2, I0
O2, I0
O2, I0
O2, I0
O2, I0
O2, I0
O2, I0
O2, I0
O2, I0
O2, I0
O2, I0
O2, I0
O2, I0
O2, I0
O2, I0
O2, I0
O2, I0
O2, I0
O2, I0
O2, I0
O2, I0
O2, I0
O2, I0
O2, I0
O2, I0
O2, I0
O2, I0
O2, I0
O2, I0
O2, I0
O2, I0
O2, I0
1590832432620
O2, I0
O2, I0
O2, I0
O2, I0
O2, I0
1590832479027
O2, I0
O2, I0
O2, I0
1590832506407
O2, I0
O2, I0
O2, I0
O2, I0
O2, I0
1590832553282
O2, I0
O2, I0
O2, I0
O2, I0
O2, I0
O2, I0
O2, I0
O2, I0
O2, I0
O2, I0
O2, I0
1590832659209
O2, I0
O2, I0
O2, I0
O2, I0
1590832695098
O2, I0
O2, I0
O2, I0
O2, I0
O2, I0
O2, I0
O2, I0
O2, I0
O2, I0
O2, I0
O2, I0
O2, I0
O2, I0
O2, I0
O2, I0
O2, I0
O2, I0
O2, I0
O2, I0
O2, I0
O2, I0
O2, I0
1590832917697
O2, I0
O2, I0
O2, I0
O2, I0
O2, I0
O2, I0
O2, I0
O2, I0
O2, I0
O2, I0
O2, I0
O2, I0
O2, I0
O2, I0
O2, I0
O2, I0
O2, I0
O2, I0
O2, I0
O2, I0
O2, I0
O2, I0
O2, I0
O2, I0
O2, I0
O2, I0
O2, I0
O2, I0
O2, I0
O2, I0
O2, I0
O2, I0
O2, I0
O2, I0
O2, I0
O2, I0
O2, I0
O2, I0
O2, I0
1590833303336
O2, I0
O2, I0
O2, I0
O2, I0
O2, I0
O2, I0
O2, I0
O2, I0
O2, I0
O2, I0
O2, I0
O2, I0
O2, I0
O2, I0
O2, I0
O2, I0
O2, I0
O2, I0
1590833480178
O2, I0
O2, I0
O2, I0
O2, I0
O2, I0
O2, I0
O2, I0
O2, I0
O2, I0
O2, I0
O2, I0
O2, I0
1590833600566
O2, I0
O2, I0
O2, I0
O2, I0
O2, I0
1590833645101
O2, I0
O2, I0
O2, I0
O2, I0
O2, I0
O2, I0
O2, I0
O2, I0
O2, I0
O2, I0
O2, I0
O2, I0
O2, I0
O2, I0
O2, I0
O2, I0
O2, I0
O2, I0
O2, I0
O2, I0
O2, I0
O2, I0
O2, I0
O2, I0
O2, I0
O2, I0
O2, I0
O2, I0
O2, I0
O2, I0
O2, I0
O2, I0
O2, I0
O2, I0
O2, I0
O2, I0
O2, I0
O2, I0
O2, I0
O2, I0
O2, I0
O2, I0
O2, I0
O2, I0
O2, I0
O2, I0
O2, I0
O2, I0
O2, I0
O2, I0
O2, I0
O2, I0
O2, I0
O2, I0
O2, I0
O2, I0
O2, I0
O2, I0
O2, I0
O2, I0
O2, I0
O2, I0
O2, I0
O2, I0
O2, I0
O2, I0
O2, I0
O2, I0
1590834325295
O2, I0
O2, I0
O2, I0
O2, I0
O2, I0
O2, I0
O2, I0
O2, I0
O2, I0
O2, I0
1590834428297
O2, I0
O2, I0
O2, I0
O2, I0
1590834468910
O2, I0
O2, I0
O2, I0
O2, I0
O2, I0
O2, I0
O2, I0
O2, I0
O2, I0
O2, I0
O2, I0
O2, I0
O2, I0
O2, I0
O2, I0
O2, I0
O2, I0
O2, I0
O2, I0
O2, I0
O2, I0
O2, I0
O2, I0
O2, I0
O2, I0
O2, I0
O2, I0
O2, I0
O2, I0
O2, I0
O2, I0
O2, I0
O2, I0
O2, I0
O2, I0
O2, I0
O2, I0
O2, I0
O2, I0
1590834860759
O2, I0
O2, I0
O2, I0
O2, I0
1590834896688
O2, I0
O2, I0
O2, I0
O2, I0
O2, I0
O2, I0
O2, I0
O2, I0
O2, I0
O2, I0
O2, I0
O2, I0
O2, I0
O2, I0
O2, I0
O2, I0
O2, I0
O2, I0
O2, I0
O2, I0
O2, I0
O2, I0
O2, I0
O2, I0
O2, I0
O2, I0
O2, I0
O2, I0
O2, I0
O2, I0
O2, I0
O2, I0
O2, I0
O2, I0
O2, I0
O2, I0
O2, I0
O2, I0
O2, I0
O2, I0
O2, I0
O2, I0
O2, I0
O2, I0
O2, I0
O2, I0
O2, I0
O2, I0
O2, I0
O2, I0
O2, I0
O2, I0
O2, I0
O2, I0
O2, I0
O2, I0
O2, I0
O2, I0
O2, I0
O2, I0
O2, I0
O2, I0
O2, I0
O2, I0
O2, I0
O2, I0
O2, I0
O2, I0
O2, I0
O2, I0
O2, I0
O2, I0
O2, I0
O2, I0
O2, I0
O2, I0
O2, I0
O2, I0
O2, I0
O2, I0
O2, I0
O2, I0
O2, I0
O2, I0
O2, I0
O2, I0
O2, I0
O1, I1
O1, I1
O1, I1
O1, I1
O1, I1
O1, I1
O1, I1
O1, I1
O1, I1
O1, I1
O1, I1
O2, I0
O2, I0
O2, I0
O2, I0
O2, I0
O2, I0
O2, I0
O2, I0
O2, I0
O2, I0
O2, I0
O2, I0
O2, I0
O2, I0
O2, I0
O2, I0
O2, I0
O2, I0
O2, I0
O2, I0
O2, I0
O2, I0
O2, I0
O2, I0
O2, I0
O2, I0
O2, I0
O2, I0
O2, I0
O2, I0
O2, I0
O2, I0
O2, I0
O2, I0
O2, I0
O2, I0
O2, I0
O2, I0
O2, I0
O2, I0
O2, I0
O2, I0
O2, I0
O2, I0
O2, I0
O2, I0
O2, I0
O2, I0
O2, I0
O2, I0
O2, I0
O2, I0
O2, I0
O2, I0
O2, I0
O2, I0
O2, I0
O2, I0
O2, I0
O2, I0
O2, I0
O2, I0
O2, I0
O2, I0
O2, I0
O2, I0
O2, I0
O2, I0
O2, I0
O2, I0
O2, I0
O2, I0
O2, I0
O2, I0
O2, I0
O2, I0
O2, I0
O2, I0
O2, I0
O2, I0
O2, I0
O2, I0
O2, I0
O2, I0
O2, I0
O2, I0
O2, I0
O2, I0
O2, I0
O2, I0
O2, I0
O2, I0
O2, I0
O2, I0
O2, I0
O2, I0
O2, I0
O2, I0
O2, I0
O2, I0
O2, I0
O2, I0
O2, I0
O2, I0
O2, I0
O2, I0
O2, I0
O2, I0
O2, I0
O2, I0
O2, I0
O2, I0
O2, I0
O2, I0
O2, I0
O2, I0
O2, I0
O2, I0
O2, I0
O2, I0
O2, I0
O2, I0
O2, I0
O2, I0
O2, I0
O2, I0
O2, I0
O2, I0
O2, I0
O2, I0
O2, I0
O2, I0
O2, I0
O2, I0
O2, I0
O2, I0
O2, I0
O2, I0
O2, I0
O2, I0
O2, I0
O2, I0
O2, I0
O2, I0
O2, I0
O2, I0
O2, I0
O2, I0
O2, I0
O2, I0
O2, I0
O2, I0
O2, I0
O2, I0
O2, I0
O2, I0
O2, I0
O2, I0
O2, I0
O2, I0
O2, I0
O2, I0
O2, I0
O2, I0
O2, I0
O2, I0
O2, I0
O2, I0
O2, I0
O2, I0
O2, I0
1590837587747
O2, I0
O2, I0
O2, I0
O2, I0
O2, I0
O2, I0
O2, I0
O2, I0
O2, I0
O2, I0
O2, I0
O2, I0
O2, I0
O2, I0
O2, I0
O2, I0
O2, I0
O2, I0
O2, I0
O2, I0
O2, I0
O2, I0
1590837806030
O2, I0
O2, I0
O2, I0
O2, I0
O2, I0
O2, I0
O2, I0
O2, I0
O2, I0
O2, I0
O2, I0
O2, I0
O2, I0
O2, I0
O2, I0
O2, I0
O2, I0
O2, I0
O2, I0
O2, I0
O2, I0
O2, I0
O2, I0
O2, I0
O2, I0
O2, I0
O2, I0
O2, I0
O2, I0
O2, I0
O2, I0
O2, I0
O2, I0
O2, I0
O2, I0
O2, I0
O2, I0
O2, I0
O2, I0
O2, I0
O2, I0
O2, I0
O2, I0
O2, I0
O2, I0
O2, I0
O2, I0
O2, I0
O2, I0
O2, I0
O2, I0
O2, I0
O2, I0
O2, I0
O2, I0
O2, I0
O2, I0
O2, I0
O2, I0
O2, I0
1590838401731
O2, I0
O2, I0
O2, I0
O2, I0
1590838438790
O2, I0
O2, I0
O2, I0
O2, I0
1590838472563
O2, I0
O2, I0
O2, I0
O2, I0
O2, I0
O2, I0
O2, I0
O2, I0
O2, I0
O2, I0
O2, I0
1590838575480
O2, I0
O2, I0
O2, I0
O2, I0
O2, I0
O2, I0
O2, I0
1590838643249
O2, I0
O2, I0
O2, I0
O2, I0
O2, I0
O2, I0
O2, I0
O2, I0
O2, I0
O2, I0
O2, I0
O2, I0
O2, I0
O2, I0
O2, I0
O2, I0
O2, I0
O2, I0
O2, I0
O2, I0
O2, I0
O2, I0
O2, I0
O2, I0
O2, I0
O2, I0
O2, I0
O2, I0
O2, I0
O2, I0
O2, I0
O2, I0
O2, I0
O2, I0
O2, I0
O2, I0
O2, I0
O2, I0
O2, I0
O2, I0
O2, I0
O2, I0
O2, I0
O2, I0
O2, I0
O2, I0
O2, I0
O2, I0
O2, I0
O2, I0
O2, I0
O2, I0
O2, I0
O2, I0
O2, I0
O2, I0
O2, I0
O2, I0
O2, I0
O2, I0
O2, I0
O2, I0
O2, I0
O2, I0
O2, I0
O2, I0
O2, I0
O2, I0
O2, I0
O2, I0
O2, I0
O2, I0
O2, I0
O2, I0
O2, I0
O2, I0
O2, I0
O2, I0
O2, I0
O2, I0
O2, I0
O2, I0
O2, I0
O2, I0
O2, I0
O2, I0
O2, I0
O2, I0
O2, I0
O2, I0
O2, I0
O2, I0
O2, I0
O2, I0
O2, I0
O2, I0
O2, I0
O2, I0
O2, I0
O2, I0
O2, I0
O2, I0
O2, I0
O2, I0
O2, I0
O2, I0
O2, I0
O2, I0
O2, I0
O2, I0
O2, I0
O2, I0
O2, I0
O2, I0
O2, I0
O2, I0
O2, I0
O2, I0
O2, I0
O2, I0
O2, I0
O2, I0
O2, I0
O2, I0
O2, I0
O2, I0
O2, I0
O2, I0
O2, I0
O2, I0
O2, I0
O2, I0
O2, I0
O2, I0
O2, I0
O2, I0
O2, I0
O2, I0
O2, I0
O2, I0
O2, I0
O2, I0
O2, I0
O2, I0
O2, I0
O2, I0
O2, I0
O2, I0
O2, I0
O2, I0
O2, I0
O2, I0
