{
  "channels": {
    "bot-test": {
      "posts": {
        "whenSilent": [
          {
            "type": "image",
            "content": "u g h",
            "path": "channelContent/images/chuckles.jpg",
            "delete": false
          }
        ]
      }
    },
    "tech-talk": {
      "posts": {
        "whenSilent": [
        ]
      }
    },
    "gaming": {
      "posts": {
        "whenSilent": []
      }
    },
    "artx": {
      "posts": {
        "whenSilent": [
          {
            "type": "text",
            "content": "Tento týpek má zaujímavé diela, https://www.instagram.com/witenry/",
            "delete": true,
            "mock": false
          }
        ]
      }
    },
    "memes": {
      "posts": {
        "whenSilent": [
          {
            "type": "image",
            "content": "",
            "path": "channelContent/images/meme1.jpg",
            "delete": false
          },
          {
            "type": "image",
            "content": "",
            "path": "channelContent/images/meme2.jpg",
            "delete": false
          },
          {
            "type": "image",
            "content": "",
            "path": "channelContent/images/meme3.jpg",
            "delete": false
          }
        ]

      }
    },
    "random": {
      "posts": {
        "whenSilent": [
          {
            "type": "text",
            "content": "Náhodný fakt: Tón splachovania väčšiny záchodov je es.",
            "mock": false
          },
          {
            "type": "text",
            "content": "Náhodný fakt: Osly ročne zabijú viac ľudí ako havárie lietadla.",
            "mock": false
          },
          {
            "type": "text",
            "content": "Náhodný fakt: Žirafa môže prežiť bez vody dlhšie ako ťava.",
            "mock": false
          }
        ]
      }
    }
  }
}